GOTO 10 10
SHOOT 100
#WALK 100 X
FOLLOW 0
SHOOT 100
GOTO 1000 0
SHOOT 100
FOLLOW 0
GOTO 0 0
FOLLOW 0
GOTO 0 0
WALK 100 X
WALK 70 Y
WALK -50 X
#WALK 100 Y
#WALK -50 X
#WALK 80 Y
GOTO 0 0
FOLLOW 0
SCREENSAVER 20
GOTO 0 0
FOLLOW 0
WALK 100 X
#WALK 200 Y
#WALK -50 X
WALK -100 Y
GOTO 0 0
FOLLOW 0
WALK 100 X
WALK 100 Y
#WALK -50 X
#WALK 100 Y
GOTO 0 0
FOLLOW 0